2.390335683059692258e+02
2.613789899826049634e+01
1.712224443435668775e+01
1.525029141426086454e+01
1.391963739395141531e+01
1.278985966682434139e+01
1.183096454620361371e+01
1.099860460281372099e+01
1.053538123130798354e+01
9.788191165924072124e+00
9.451086816787720224e+00
9.089049348831176545e+00
8.656589050292968324e+00
8.418299016952515146e+00
8.094629426002502015e+00
7.927185235023498144e+00
7.800752949714660822e+00
7.690009732246398499e+00
7.582858633995056330e+00
7.392992444038391397e+00
7.370729069709778258e+00
7.299982213973999379e+00
7.243176746368408025e+00
7.056065425872803054e+00
7.096368093490600160e+00
7.038851795196532812e+00
6.947277321815490403e+00
6.973369555473327708e+00
6.673234190940856791e+00
6.590130691528320206e+00
6.503251037597656214e+00
6.460687537193297914e+00
6.454284973144531534e+00
6.380199842453002645e+00
6.378605566024780238e+00
6.393024311065674148e+00
6.386640772819519363e+00
6.187823581695556463e+00
6.066168332099914906e+00
6.119992160797119496e+00
6.094061555862427149e+00
5.961244778633117747e+00
5.925872111320495961e+00
5.881298103332519567e+00
5.950774769783020446e+00
5.932019276618957448e+00
5.883508381843566504e+00
5.864044981002807688e+00
5.792812595367431427e+00
5.745094599723816309e+00
