2.803812890243530092e+02
2.868856485366821119e+01
1.963523334503173956e+01
1.732855298042297321e+01
1.639737931251525893e+01
1.538130901336669965e+01
1.472915093421936028e+01
1.390293217658996561e+01
1.358048082351684549e+01
1.276651005744934153e+01
1.207943512916564899e+01
1.185400437355041525e+01
1.140930616378784102e+01
1.101981032371521074e+01
1.072234358787536657e+01
1.058222399711608830e+01
1.032385824203491254e+01
1.006549133300781307e+01
9.872832078933715394e+00
9.841697740554810281e+00
9.518683509826660227e+00
9.524964752197265128e+00
9.372528743743895774e+00
9.342064256668090039e+00
9.239825706481934020e+00
9.111606192588805442e+00
9.152479476928711222e+00
9.032499008178710653e+00
8.946678714752197337e+00
8.977408676147460298e+00
8.961361541748047443e+00
8.549450993537902832e+00
8.515397500991820579e+00
8.503942937850952788e+00
8.522472662925720144e+00
8.280074696540832946e+00
8.213649506568907910e+00
8.209146170616149263e+00
8.160910019874572541e+00
8.090360765457154102e+00
8.047280883789062145e+00
8.073993039131163840e+00
8.099835395812988281e+00
8.042046871185302592e+00
8.043093504905700186e+00
8.062159156799316051e+00
8.054966812133789844e+00
7.983368473052978587e+00
7.917776970863342534e+00
7.978907871246337713e+00
