5.388197319030761889e+01
2.074638160705566392e+01
1.741948911666870004e+01
1.740949750900268711e+01
1.487800785064697351e+01
1.978679523468017720e+01
1.346761323928832965e+01
1.340875329971313512e+01
1.205479412078857493e+01
1.174198450088501033e+01
1.125607988357544009e+01
1.075092288970947330e+01
1.051191810607910071e+01
1.069324218749999922e+01
1.048455444335937514e+01
1.065540243148803690e+01
9.648814811706543537e+00
9.720747241973876740e+00
1.071442691802978509e+01
9.085444803237914257e+00
9.591234951019286470e+00
9.234051351547241993e+00
9.045199842453003569e+00
9.642957420349121733e+00
8.814508152008055930e+00
9.101865139007568217e+00
9.086183280944824858e+00
8.989092216491698650e+00
8.263283185958862020e+00
8.665010070800780895e+00
8.433448448181152912e+00
8.364402341842652078e+00
8.022534523010254048e+00
8.354155368804931925e+00
8.089692754745483327e+00
8.137764577865601368e+00
8.142319421768188903e+00
8.001405248641967560e+00
8.048895006179810352e+00
8.054709682464599396e+00
8.079759407043457742e+00
7.929724636077881250e+00
7.947133197784423508e+00
7.892041273117065714e+00
8.042986984252928906e+00
7.973078384399413743e+00
7.916675214767455948e+00
7.928515062332153640e+00
7.922096347808837535e+00
7.868648548126220277e+00
