5.253647781372070114e+01
1.769868000564575141e+03
1.769004932403564467e+01
7.598935600280761093e+01
1.659773998260498118e+01
1.491288204193115163e+01
1.431937891006469776e+01
1.260272176742553718e+01
1.274211828231811516e+01
1.123492643356323306e+01
1.097079210281372141e+01
1.140193716049194350e+01
1.052969001770019553e+01
1.022948390960693388e+01
9.997530632019042685e+00
1.041952390670776296e+01
9.619269027709961506e+00
9.394537124633789205e+00
9.206220932006836222e+00
9.387093696594238423e+00
9.023199090957641388e+00
9.017020883560180167e+00
9.085083913803099875e+00
9.058180589675902894e+00
9.022522478103637056e+00
8.551046495437622852e+00
9.122632169723511097e+00
8.426528491973876100e+00
8.367385501861571484e+00
8.929978504180908772e+00
8.445916461944580789e+00
8.558006820678711435e+00
8.179531221389771289e+00
8.106099128723144531e+00
8.094668359756470366e+00
8.241535615921019797e+00
8.197439022064209269e+00
8.236921443939209553e+00
8.206449003219605132e+00
7.986706609725952255e+00
7.959721641540527415e+00
7.864625673294067809e+00
7.932145471572876083e+00
7.997021713256835973e+00
7.939755916595458984e+00
7.985749893188476278e+00
7.859129276275634624e+00
7.909305982589721395e+00
7.908914489746093679e+00
8.047458372116089720e+00
