2.295619552612304659e+01
1.929627235412597486e+01
6.387430625152587709e+02
2.834252738952636719e+01
2.397867532730102624e+01
1.392059074401855412e+01
1.462394325256347649e+01
1.305540699005126903e+01
1.271991210937500050e+01
1.254329811096191349e+01
1.217842885971069400e+01
1.158923069000244155e+01
1.154618726730346623e+01
1.161548309326171946e+01
1.105696346282958942e+01
1.081597919464111257e+01
1.288739707946777280e+01
1.053156166076660227e+01
1.052819108963012695e+01
1.092530416488647482e+01
1.025633350372314467e+01
1.005011062622070384e+01
1.018485242843627958e+01
9.627054519653320597e+00
9.444553909301758310e+00
9.600319252014159588e+00
9.669633979797362500e+00
9.207137680053710582e+00
9.572229862213134766e+00
9.297922410964964968e+00
1.026035316467285163e+01
8.936689376831054688e+00
8.941774654388428445e+00
9.059615535736083913e+00
8.800963172912597443e+00
8.666570167541504333e+00
8.780156402587889986e+00
8.628429622650147124e+00
8.583069648742675639e+00
8.646957817077636221e+00
8.624279928207396750e+00
8.874263639450072461e+00
8.536081686019898029e+00
8.345221118927002024e+00
8.365615358352661346e+00
8.402615232467651296e+00
8.779454278945923562e+00
8.300804538726806570e+00
8.508759765624999361e+00
8.364143571853638548e+00
