1.080068731307983398e+02
2.253798042297363224e+01
1.803117959976196261e+01
1.674501892089843835e+01
1.536968708038330078e+01
1.430472131729126062e+01
1.350072525978088400e+01
1.256778141975402896e+01
1.218523994445800795e+01
1.142458881378173885e+01
1.100012135505676270e+01
1.052900974273681634e+01
1.042298774719238352e+01
9.929356822967529084e+00
9.677427787780761292e+00
9.494971809387207529e+00
9.294297423362731791e+00
8.994973206520080922e+00
8.947749958038329510e+00
8.827904014587401704e+00
8.646561632156371857e+00
8.579524049758910920e+00
8.414430646896361665e+00
8.393789939880370810e+00
8.290227923393249654e+00
8.171109137535095712e+00
8.164648394584656188e+00
8.261421556472777539e+00
8.129341020584107014e+00
7.977364220619201696e+00
7.751981778144836355e+00
7.657131128311156942e+00
7.634702801704406738e+00
7.514004225730896103e+00
7.561277861595153915e+00
7.498634548187255611e+00
7.400536389350890865e+00
7.433164987564087056e+00
7.358111896514892614e+00
7.392854571342468262e+00
7.285441994667053223e+00
7.358846673965453888e+00
7.343421025276184011e+00
7.306966047286987731e+00
7.301503953933715430e+00
7.213952670097350861e+00
7.249630980491637899e+00
7.234028501510620046e+00
7.057984461784363006e+00
6.930383577346801438e+00
